1 1 1
1 10 20
10 1 20
1 9 20
9 1 20
1 8 17
8 1 17
1 7 17
7 1 17
1 6 9
6 1 9
1 5 8
5 1 8
1 4 8
4 1 8
1 3 8
3 1 8
1 2 2
2 1 2
2 9 20
9 2 20
3 8 17
8 3 17
4 7 17
7 4 17
5 6 9
6 5 9
5 10 20
10 5 20
5 100 119
100 5 119
5 200 125
200 5 125
15 200 125
200 15 125
50 200 125
200 50 125
100 200 125
200 100 125
105 205 125
205 201 40
100 1000 179
1000 100 179
100 900 179
900 100 179
201 210 89
210 201 89
201 205 40
205 201 40
900 905 117
905 900 117
900 1000 174
1000 900 174
910 1010 174
1010 910 174
1000 1000 112
2000 1000 182
1000 2000 182
1 1000 179
1000 1 179
500 1000 179
1000 500 179
750 1000 179
1000 750 179
200 1000 179
1000 200 179
200 500 144
500 200 144
100 500 144
500 100 144
5 50 112
50 5 112
25 50 112
50 25 112
10 15 18
10 20 21
10 25 24
10 30 112
10 35 112
10 40 112
10 45 112
10 50 112
15 10 18
20 10 21
25 10 24
30 10 112
35 10 112
40 10 112
45 10 112
50 10 112
1000 1001 143
1000 998 112
999 1000 112
998 1000 112
1000 999 112
1001 1000 143
50 51 25
50 52 25
50 53 25
50 54 113
