1 10 20
100 200 125
201 210 89
900 1000 174
1000 2000 182
5000 10000 262
20000 15000 279
12345 4321 268
999999 980000 440
980000 999999 440
500000 501000 364
4301 9412 262
70823 71500 325
8050 9123 247
958 1234 182
8509 12341 268
600000 600001 90
2333 2332 33
39391 40000 306
50505 52595 340
60491 69112 335
800000 801000 375
39123 40192 306
75484 80000 351
49401 50494 296
59595 58000 273
200000 200100 311
86421 87601 333
99999 100000 227
39192 40191 306
610100 611000 341
29404 30000 272
58102 60010 304
200000 201000 342
90000 89000 315
90001 88999 315
10234 9501 242
100 20 119
5 10 20
30 14 112
50 65 113
39 30 107
10 20 21
500 399 142
590 800 171
491 399 142
188 421 144
509 1525 182
3000 4010 238
599 800 171
391 503 142
1330 2000 180
5910 6101 187
700000 700001 168
50913 48109 296
900 600 179
4500 4601 184
6092 5092 236
213 250 128
491 500 142
109 300 128
153 148 37
701 800 171
590 600 119
90 90 18
481 470 129
609 610 132
39123 40000 306
6096 6200 262
7909 8000 252
551000 552000 377
3099 3000 186
6000 6200 262
96 41 116
409 456 134
85 90 31
19 19 21
5091 5059 179
11000 11001 69
98 100 26
757 858 153
1010 101 179
6987 7123 195
6868 6100 262
20000 20005 181
9999 8900 260
5701 6017 218
2013 2019 113
575 474 142
2029 2101 157
6868 7171 257
50000 49999 128
1092 1100 138
99 200 125
50 60 113
39 110 119
6818 7000 257
393 400 121
4910 5019 210
607 700 145
3030 3100 186
211 213 40
2828 3000 217
609 680 145
200 100 125
18 21 21
650000 650020 230
3091 3899 238
1 999999 525
